Chapter 2 Chapter 1: The Programming Environment | Empricial Finance and Statistical Analysis
…
Here, we defined the same set-up as with the line plots, but just had to re-shuffle in order not to use the time-series character of the data.

Melt and Tidy

By using this set-up, we are able to draw a time-series relationship of multiple stocks and distinguish them by color. Note that this is identical to the melt set-up we used to create two differently coloured histograms or density plots for each of the two variables. In effect, looking at the both datasets, we see their identity:

tidy(df_2_ret_ts_cum)

## # A tibble: 544 x 3
##    index      series        value
##    <date>     <chr>         <dbl>
##  1 1999-09-30 ABB           1.00 
##  2 1999-09-30 Adecco        1.00 
##  3 1999-09-30 Nestle_PS     0.943
##  4 1999-09-30 Roche_Holding 0.991
##  5 1999-10-29 ABB           0.994
##  6 1999-10-29 Adecco        1.11 
##  7 1999-10-29 Nestle_PS     0.983
##  8 1999-10-29 Roche_Holding 1.04 
##  9 1999-11-30 ABB           1.02 
## 10 1999-11-30 Adecco        1.22 
## # … with 534 more rows
…
