Chapter 6 Factor Models | Advanced Empirical Finance
…
  mutate(Diff_Equity = round(Total_Eq_t - Total_Eq_Real,3),
         Diff_Equity_Ratio = round(Diff_Equity / ((Total_Eq_t + Total_Eq_Real)/2),3),
         Same_identifier = ifelse(Total_Eq_t == Total_Eq_Real, 1, 0)) %>% 
  subset(Same_identifier == 0) %>% 
  # As we can see, there are 16'040 observations where the Total Equity value is different from one another 
  subset( abs(Diff_Equity_Ratio) > 0.1) %>% 
  # If we now only consider large discrepancies (more than 10% deviation), we obtain 2'255 observations 
  subset(abs(Diff_Equity_Ratio) > 0.1) %>% 
  # If we only consider the companies which have at at least one point in time a deviation of more than 10%, we would get 51 companies with a deviation of 
  # more than 10%!
  select(Ticker) %>% 
  unique() %>% 
  arrange(Ticker)

## # A tibble: 115 × 1
##    Ticker
##    <chr> 
##  1 ABBN  
##  2 ACUN  
##  3 ADEN  
##  4 ADVN  
##  5 ADXN  
##  6 AEVS  
##  7 AIRE  
##  8 AIRN  
##  9 ALCN  
## 10 ALPH  
## # … with 105 more rows
…
